Module 10: Relational Data with dplyr
…
.center[
# nycflights13 data
]

.panelset[

.panel[.panel-name[flights]

]<!---->

.panel[.panel-name[airports]

```
## # A tibble: 1,458 × 8
##    faa   name                             lat    lon   alt    tz dst   tzone              
##    <chr> <chr>                          <dbl>  <dbl> <dbl> <dbl> <chr> <chr>              
##  1 04G   Lansdowne Airport               41.1  -80.6  1044    -5 A     America/New_York   
##  2 06A   Moton Field Municipal Airport   32.5  -85.7   264    -6 A     America/Chicago    
##  3 06C   Schaumburg Regional             42.0  -88.1   801    -6 A     America/Chicago    
##  4 06N   Randall Airport                 41.4  -74.4   523    -5 A     America/New_York   
##  5 09J   Jekyll Island Airport           31.1  -81.4    11    -5 A     America/New_York   
##  6 0A9   Elizabethton Municipal Airport  36.4  -82.2  1593    -5 A     America/New_York   
##  7 0G6   Williams County Airport         41.5  -84.5   730    -5 A     America/New_York   
##  8 0G7   Finger Lakes Regional Airport   42.9  -76.8   492    -5 A     America/New_York   
##  9 0P2   Shoestring Aviation Airfield    39.8  -76.6  1000    -5 U     America/New_York   
## 10 0S9   Jefferson County Intl           48.1 -123.    108    -8 A     America/Los_Angeles
## # … with 1,448 more rows
```

]<!---->

.panel[.panel-name[planes]

```
## # A tibble: 3,322 × 9
##    tailnum  year type                    manufacturer     model     engines seats speed engine   
##    <chr>   <int> <chr>                   <chr>            <chr>       <int> <int> <int> <chr>    
##  1 N10156   2004 Fixed wing multi engine EMBRAER          EMB-145XR       2    55    NA Turbo-fan
##  2 N102UW   1998 Fixed wing multi engine AIRBUS INDUSTRIE A320-214        2   182    NA Turbo-fan
##  3 N103US   1999 Fixed wing multi engine AIRBUS INDUSTRIE A320-214        2   182    NA Turbo-fan
##  4 N104UW   1999 Fixed wing multi engine AIRBUS INDUSTRIE A320-214        2   182    NA Turbo-fan
##  5 N10575   2002 Fixed wing multi engine EMBRAER          EMB-145LR       2    55    NA Turbo-fan
##  6 N105UW   1999 Fixed wing multi engine AIRBUS INDUSTRIE A320-214        2   182    NA Turbo-fan
##  7 N107US   1999 Fixed wing multi engine AIRBUS INDUSTRIE A320-214        2   182    NA Turbo-fan
##  8 N108UW   1999 Fixed wing multi engine AIRBUS INDUSTRIE A320-214        2   182    NA Turbo-fan
##  9 N109UW   1999 Fixed wing multi engine AIRBUS INDUSTRIE A320-214        2   182    NA Turbo-fan
## 10 N110UW   1999 Fixed wing multi engine AIRBUS INDUSTRIE A320-214        2   182    NA Turbo-fan
## # … with 3,312 more rows
```
]<!---->

.panel[.panel-name[weather]

```
## # A tibble: 26,115 × 15
##    origin  year month   day  hour  temp  dewp humid wind_dir wind_speed wind_gust precip pressure visib time_hour          
##    <chr>  <int> <int> <int> <int> <dbl> <dbl> <dbl>    <dbl>      <dbl>     <dbl>  <dbl>    <dbl> <dbl> <dttm>             
##  1 EWR     2013     1     1     1  39.0  26.1  59.4      270      10.4         NA      0    1012     10 2013-01-01 01:00:00
##  2 EWR     2013     1     1     2  39.0  27.0  61.6      250       8.06        NA      0    1012.    10 2013-01-01 02:00:00
##  3 EWR     2013     1     1     3  39.0  28.0  64.4      240      11.5         NA      0    1012.    10 2013-01-01 03:00:00
##  4 EWR     2013     1     1     4  39.9  28.0  62.2      250      12.7         NA      0    1012.    10 2013-01-01 04:00:00
##  5 EWR     2013     1     1     5  39.0  28.0  64.4      260      12.7         NA      0    1012.    10 2013-01-01 05:00:00
##  6 EWR     2013     1     1     6  37.9  28.0  67.2      240      11.5         NA      0    1012.    10 2013-01-01 06:00:00
##  7 EWR     2013     1     1     7  39.0  28.0  64.4      240      15.0         NA      0    1012.    10 2013-01-01 07:00:00
##  8 EWR     2013     1     1     8  39.9  28.0  62.2      250      10.4         NA      0    1012.    10 2013-01-01 08:00:00
##  9 EWR     2013     1     1     9  39.9  28.0  62.2      260      15.0         NA      0    1013.    10 2013-01-01 09:00:00
## 10 EWR     2013     1     1    10  41    28.0  59.6      260      13.8         NA      0    1012.    10 2013-01-01 10:00:00
## # … with 26,105 more rows
```
…
.pull-right[

```r
flights %>% semi_join(top_dest)
```

```
## Joining, by = "dest"
```

```
## # A tibble: 80,262 × 19
##     year month   day dep_time sched_dep_time dep_delay arr_time sched_arr_time arr_delay carrier flight tailnum origin dest  air_time distance  hour minute time_hour          
##    <int> <int> <int>    <int>          <int>     <dbl>    <int>          <int>     <dbl> <chr>    <int> <chr>   <chr>  <chr>    <dbl>    <dbl> <dbl>  <dbl> <dttm>             
##  1  2013     1     1      554            600        -6      812            837       -25 DL         461 N668DN  LGA    ATL        116      762     6      0 2013-01-01 06:00:00
##  2  2013     1     1      554            558        -4      740            728        12 UA        1696 N39463  EWR    ORD        150      719     5     58 2013-01-01 05:00:00
##  3  2013     1     1      557            600        -3      838            846        -8 B6          79 N593JB  JFK    MCO        140      944     6      0 2013-01-01 06:00:00
##  4  2013     1     1      558            600        -2      753            745         8 AA         301 N3ALAA  LGA    ORD        138      733     6      0 2013-01-01 06:00:00
##  5  2013     1     1      558            600        -2      924            917         7 UA         194 N29129  JFK    LAX        345     2475     6      0 2013-01-01 06:00:00
##  6  2013     1     1      559            559         0      702            706        -4 B6        1806 N708JB  JFK    BOS         44      187     5     59 2013-01-01 05:00:00
##  7  2013     1     1      600            600         0      837            825        12 MQ        4650 N542MQ  LGA    ATL        134      762     6      0 2013-01-01 06:00:00
##  8  2013     1     1      606            610        -4      837            845        -8 DL        1743 N3739P  JFK    ATL        128      760     6     10 2013-01-01 06:00:00
##  9  2013     1     1      608            600         8      807            735        32 MQ        3768 N9EAMQ  EWR    ORD        139      719     6      0 2013-01-01 06:00:00
## 10  2013     1     1      615            615         0      833            842        -9 DL         575 N326NB  EWR    ATL        120      746     6     15 2013-01-01 06:00:00
## # … with 80,252 more rows
```
…
---

.center[
# anti_join
]

```r
flights %>% anti_join(planes, by = "tailnum") %>% count(tailnum, sort = TRUE)
```

```
## # A tibble: 722 × 2
##    tailnum     n
##    <chr>   <int>
##  1 <NA>     2512
##  2 N725MQ    575
##  3 N722MQ    513
##  4 N723MQ    507
##  5 N713MQ    483
##  6 N735MQ    396
##  7 N0EGMQ    371
##  8 N534MQ    364
##  9 N542MQ    363
## 10 N531MQ    349
## # … with 712 more rows
```
…
```r
long_delay5 <- flights %>% group_by(year, month, day) %>% summarize(mean = mean(dep_delay, na.rm = TRUE)) %>% ungroup() %>% slice_max(order_by = mean, n = 5)
```

```r
flights %>% semi_join(long_delay5)
```

```
## Joining, by = c("year", "month", "day")
```

```
## # A tibble: 4,847 × 19
##     year month   day dep_time sched_dep_time dep_delay arr_time sched_arr_time arr_delay carrier flight tailnum origin dest  air_time distance  hour minute time_hour          
##    <int> <int> <int>    <int>          <int>     <dbl>    <int>          <int>     <dbl> <chr>    <int> <chr>   <chr>  <chr>    <dbl>    <dbl> <dbl>  <dbl> <dttm>             
##  1  2013    12     5       16           2159       137      117           2307       130 9E        3525 N602LR  LGA    SYR         38      198    21     59 2013-12-05 21:00:00
##  2  2013    12     5       27           2035       232      143           2203       220 9E        2914 N920XJ  JFK    DCA         51      213    20     35 2013-12-05 20:00:00
##  3  2013    12     5       31           2229       122      153           2351       122 B6         486 N323JB  JFK    ROC         60      264    22     29 2013-12-05 22:00:00
##  4  2013    12     5       32           1930       302      228           2136       292 EV        4370 N11121  EWR    CHS         94      628    19     30 2013-12-05 19:00:00
##  5  2013    12     5       38           2359        39      505            445        20 B6         745 N663JB  JFK    PSE        186     1617    23     59 2013-12-05 23:00:00
##  6  2013    12     5       50           2046       244      233           2224       249 EV        4106 N14171  EWR    GSO         80      445    20     46 2013-12-05 20:00:00
##  7  2013    12     5       56           2359        57      510            437        33 B6         839 N523JB  JFK    BQN        178     1576    23     59 2013-12-05 23:00:00
##  8  2013    12     5      155           2130       265      445             18       267 B6        1371 N556JB  LGA    FLL        148     1076    21     30 2013-12-05 21:00:00
##  9  2013    12     5      457            500        -3      637            651       -14 US        1895 N563UW  EWR    CLT         81      529     5      0 2013-12-05 05:00:00
## 10  2013    12     5      512            515        -3      753            814       -21 UA        1545 N14230  EWR    IAH        204     1400     5     15 2013-12-05 05:00:00
## # … with 4,837 more rows
```
